{
  "profiles": {
    "BlueSplashCommandApp": {
      "commandName": "Project",
      "commandLineArgs": "-v error -d ..\\_log -t EventQueue -l Serilog"
    },
    "Help": {
      "commandName": "Project",
      "commandLineArgs": "-h"
    },
    "Version": {
      "commandName": "Project",
      "commandLineArgs": "--version"
    },
    "Defaults": {
      "commandName": "Project",
      "commandLineArgs": ""
    },
    "DebugCommandLine": {
      "commandName": "Project",
      "commandLineArgs": "-v error -d ..\\_log -t EventQueue -l Serilog"
    }
  }
}
